#  ██████╗ ██████╗  ██████╗ ████████╗ ██████╗ ██╗   ██╗██████╗ ███████╗
#  ██╔══██╗██╔══██╗██╔═══██╗╚══██╔══╝██╔═══██╗╚██╗ ██╔╝██╔══██╗██╔════╝
#  ██████╔╝██████╔╝██║   ██║   ██║   ██║   ██║ ╚████╔╝ ██████╔╝█████╗
#  ██╔═══╝ ██╔══██╗██║   ██║   ██║   ██║   ██║  ╚██╔╝  ██╔═══╝ ██╔══╝
#  ██║     ██║  ██║╚██████╔╝   ██║   ╚██████╔╝   ██║   ██║     ███████╗
#  ╚═╝     ╚═╝  ╚═╝ ╚═════╝    ╚═╝    ╚═════╝    ╚═╝   ╚═╝     ╚══════╝
#
-----------Media in Context - Prototype Application-----------

